%YAML 1.1
%TAG !u! tag:unity3d.com,2011:
--- !u!74 &7400000
AnimationClip:
  m_ObjectHideFlags: 0
  m_PrefabParentObject: {fileID: 0}
  m_PrefabInternal: {fileID: 0}
  m_Name: idle
  serializedVersion: 6
  m_Legacy: 0
  m_Compressed: 0
  m_UseHighQualityCurve: 1
  m_RotationCurves: []
  m_CompressedRotationCurves: []
  m_EulerCurves: []
  m_PositionCurves: []
  m_ScaleCurves: []
  m_FloatCurves: []
  m_PPtrCurves:
  - curve:
    - time: 0
      value: {fileID: 21300000, guid: 449fc03ae135bbf43b4247095e5fcb7c, type: 3}
    - time: 0.083333336
      value: {fileID: 21300000, guid: cd4449e2ee9036d44b9fd8d2522e7707, type: 3}
    - time: 0.16666667
      value: {fileID: 21300000, guid: 59553736dee7ce548a157c4223477fb4, type: 3}
    - time: 0.25
      value: {fileID: 21300000, guid: 73d17f4e4b53f3848b4262b53c48b95a, type: 3}
    - time: 0.33333334
      value: {fileID: 21300000, guid: ca04bebc028add245badcce3b9653b8a, type: 3}
    - time: 0.41666666
      value: {fileID: 21300000, guid: c431edd1b7abe5b48a990fb8124d1ee0, type: 3}
    - time: 0.5
      value: {fileID: 21300000, guid: 038be8982b9f86946a69beac7286a734, type: 3}
    - time: 0.5833333
      value: {fileID: 21300000, guid: 2411ea5852986994f910866c467ee3e5, type: 3}
    - time: 0.6666667
      value: {fileID: 21300000, guid: 8a627d23cb90710439e56fa13878b083, type: 3}
    - time: 0.75
      value: {fileID: 21300000, guid: 0f2ce060dc6d21b43900ca6bff2d9d77, type: 3}
    attribute: m_Sprite
    path: 
    classID: 212
    script: {fileID: 0}
  m_SampleRate: 12
  m_WrapMode: 0
  m_Bounds:
    m_Center: {x: 0, y: 0, z: 0}
    m_Extent: {x: 0, y: 0, z: 0}
  m_ClipBindingConstant:
    genericBindings:
    - path: 0
      attribute: 0
      script: {fileID: 0}
      classID: 212
      customType: 23
      isPPtrCurve: 1
    pptrCurveMapping:
    - {fileID: 21300000, guid: 449fc03ae135bbf43b4247095e5fcb7c, type: 3}
    - {fileID: 21300000, guid: cd4449e2ee9036d44b9fd8d2522e7707, type: 3}
    - {fileID: 21300000, guid: 59553736dee7ce548a157c4223477fb4, type: 3}
    - {fileID: 21300000, guid: 73d17f4e4b53f3848b4262b53c48b95a, type: 3}
    - {fileID: 21300000, guid: ca04bebc028add245badcce3b9653b8a, type: 3}
    - {fileID: 21300000, guid: c431edd1b7abe5b48a990fb8124d1ee0, type: 3}
    - {fileID: 21300000, guid: 038be8982b9f86946a69beac7286a734, type: 3}
    - {fileID: 21300000, guid: 2411ea5852986994f910866c467ee3e5, type: 3}
    - {fileID: 21300000, guid: 8a627d23cb90710439e56fa13878b083, type: 3}
    - {fileID: 21300000, guid: 0f2ce060dc6d21b43900ca6bff2d9d77, type: 3}
  m_AnimationClipSettings:
    serializedVersion: 2
    m_AdditiveReferencePoseClip: {fileID: 0}
    m_AdditiveReferencePoseTime: 0
    m_StartTime: 0
    m_StopTime: 0.8333333
    m_OrientationOffsetY: 0
    m_Level: 0
    m_CycleOffset: 0
    m_HasAdditiveReferencePose: 0
    m_LoopTime: 1
    m_LoopBlend: 0
    m_LoopBlendOrientation: 0
    m_LoopBlendPositionY: 0
    m_LoopBlendPositionXZ: 0
    m_KeepOriginalOrientation: 0
    m_KeepOriginalPositionY: 1
    m_KeepOriginalPositionXZ: 0
    m_HeightFromFeet: 0
    m_Mirror: 0
  m_EditorCurves: []
  m_EulerEditorCurves: []
  m_HasGenericRootTransform: 0
  m_HasMotionFloatCurves: 0
  m_GenerateMotionCurves: 0
  m_Events: []
