%YAML 1.1
%TAG !u! tag:unity3d.com,2011:
--- !u!74 &7400000
AnimationClip:
  m_ObjectHideFlags: 0
  m_PrefabParentObject: {fileID: 0}
  m_PrefabInternal: {fileID: 0}
  m_Name: chouch_shot
  serializedVersion: 6
  m_Legacy: 0
  m_Compressed: 0
  m_UseHighQualityCurve: 1
  m_RotationCurves: []
  m_CompressedRotationCurves: []
  m_EulerCurves: []
  m_PositionCurves: []
  m_ScaleCurves: []
  m_FloatCurves: []
  m_PPtrCurves:
  - curve:
    - time: 0
      value: {fileID: 21300000, guid: 117c9c5a047495a4d9cc7c684335ba51, type: 3}
    - time: 0.083333336
      value: {fileID: 21300000, guid: 3608bff207869d142882236ce03083cb, type: 3}
    - time: 0.16666667
      value: {fileID: 21300000, guid: 4d68458dde54db848bbb3bafbe66a038, type: 3}
    - time: 0.25
      value: {fileID: 21300000, guid: 7d30e2a39d5b9ea4da1d4d08718b58e8, type: 3}
    - time: 0.33333334
      value: {fileID: 21300000, guid: be9472274dd5c13478790f18028aebe0, type: 3}
    - time: 0.41666666
      value: {fileID: 21300000, guid: dac72dfd77c78ec4d827f6a2a50bae81, type: 3}
    - time: 0.5
      value: {fileID: 21300000, guid: 337029f7fc120564ea97ac84c5cacadc, type: 3}
    - time: 0.5833333
      value: {fileID: 21300000, guid: 567bf03295fb3294e85c445a721bf85f, type: 3}
    - time: 0.6666667
      value: {fileID: 21300000, guid: 396d915ad87a3f24d9d9de5b6e1b2659, type: 3}
    - time: 0.75
      value: {fileID: 21300000, guid: 1436fccd0027a894395799e1562f67a6, type: 3}
    attribute: m_Sprite
    path: 
    classID: 212
    script: {fileID: 0}
  m_SampleRate: 12
  m_WrapMode: 0
  m_Bounds:
    m_Center: {x: 0, y: 0, z: 0}
    m_Extent: {x: 0, y: 0, z: 0}
  m_ClipBindingConstant:
    genericBindings:
    - path: 0
      attribute: 0
      script: {fileID: 0}
      classID: 212
      customType: 23
      isPPtrCurve: 1
    pptrCurveMapping:
    - {fileID: 21300000, guid: 117c9c5a047495a4d9cc7c684335ba51, type: 3}
    - {fileID: 21300000, guid: 3608bff207869d142882236ce03083cb, type: 3}
    - {fileID: 21300000, guid: 4d68458dde54db848bbb3bafbe66a038, type: 3}
    - {fileID: 21300000, guid: 7d30e2a39d5b9ea4da1d4d08718b58e8, type: 3}
    - {fileID: 21300000, guid: be9472274dd5c13478790f18028aebe0, type: 3}
    - {fileID: 21300000, guid: dac72dfd77c78ec4d827f6a2a50bae81, type: 3}
    - {fileID: 21300000, guid: 337029f7fc120564ea97ac84c5cacadc, type: 3}
    - {fileID: 21300000, guid: 567bf03295fb3294e85c445a721bf85f, type: 3}
    - {fileID: 21300000, guid: 396d915ad87a3f24d9d9de5b6e1b2659, type: 3}
    - {fileID: 21300000, guid: 1436fccd0027a894395799e1562f67a6, type: 3}
  m_AnimationClipSettings:
    serializedVersion: 2
    m_AdditiveReferencePoseClip: {fileID: 0}
    m_AdditiveReferencePoseTime: 0
    m_StartTime: 0
    m_StopTime: 0.8333333
    m_OrientationOffsetY: 0
    m_Level: 0
    m_CycleOffset: 0
    m_HasAdditiveReferencePose: 0
    m_LoopTime: 1
    m_LoopBlend: 0
    m_LoopBlendOrientation: 0
    m_LoopBlendPositionY: 0
    m_LoopBlendPositionXZ: 0
    m_KeepOriginalOrientation: 0
    m_KeepOriginalPositionY: 1
    m_KeepOriginalPositionXZ: 0
    m_HeightFromFeet: 0
    m_Mirror: 0
  m_EditorCurves: []
  m_EulerEditorCurves: []
  m_HasGenericRootTransform: 0
  m_HasMotionFloatCurves: 0
  m_GenerateMotionCurves: 0
  m_Events: []
